[gd_scene load_steps=2 format=3 uid="uid://c0t7ppu33kgbf"]

[sub_resource type="StyleBoxFlat" id="StyleBoxFlat_bqoht"]
bg_color = Color(0.286275, 0.670588, 0.290196, 1)

[node name="Menu seleccion" type="Control"]
layout_mode = 3
anchors_preset = 15
anchor_right = 1.0
anchor_bottom = 1.0
grow_horizontal = 2
grow_vertical = 2

[node name="Fondo" type="Panel" parent="."]
layout_mode = 1
anchors_preset = 15
anchor_right = 1.0
anchor_bottom = 1.0
grow_horizontal = 2
grow_vertical = 2
theme_override_styles/panel = SubResource("StyleBoxFlat_bqoht")
