[gd_scene load_steps=4 format=3 uid="uid://cng6ovbyl0ce2"]

[ext_resource type="Texture2D" uid="uid://wxpkdv5heovl" path="res://Componentes/Texturas/Balas/Bala jefe tierra (normal).png" id="1_d3htp"]
[ext_resource type="Script" path="res://Componentes/Codigos/bala_jefe_tierra_(normal).gd" id="1_oa5mf"]

[sub_resource type="CircleShape2D" id="CircleShape2D_4jda3"]
radius = 7.0

[node name="Bala jefe tierra (normal)" type="Area2D" groups=["Bala"]]
script = ExtResource("1_oa5mf")

[node name="BalaJefeTierra(normal)" type="Sprite2D" parent="."]
texture = ExtResource("1_d3htp")

[node name="Colicion" type="CollisionShape2D" parent="."]
shape = SubResource("CircleShape2D_4jda3")

[node name="VisibleOnScreenNotifier2D" type="VisibleOnScreenNotifier2D" parent="."]
position = Vector2(-1.19209e-07, 1.19209e-07)
scale = Vector2(0.7, 0.7)

[connection signal="area_entered" from="." to="." method="_on_area_entered"]
[connection signal="screen_exited" from="VisibleOnScreenNotifier2D" to="." method="_on_visible_on_screen_notifier_2d_screen_exited"]
