[gd_scene load_steps=4 format=3 uid="uid://40povfpkxgoo"]

[ext_resource type="Texture2D" uid="uid://cxkrkyrb8cfdx" path="res://Componentes/Texturas/Balas/Piedra grande.png" id="1_4lmk4"]
[ext_resource type="Script" path="res://Componentes/Codigos/piedra_grnade_v_2.gd" id="1_jgf0q"]

[sub_resource type="CircleShape2D" id="CircleShape2D_27bse"]
radius = 25.02

[node name="Piedra grnade v2" type="RigidBody2D"]
collision_layer = 0
collision_mask = 0
script = ExtResource("1_jgf0q")

[node name="PiedraGrande" type="Sprite2D" parent="."]
texture = ExtResource("1_4lmk4")

[node name="Colicion" type="CollisionShape2D" parent="."]
shape = SubResource("CircleShape2D_27bse")

[node name="Inpacto" type="Area2D" parent="."]

[node name="Colicion" type="CollisionShape2D" parent="Inpacto"]
shape = SubResource("CircleShape2D_27bse")
