[gd_scene load_steps=5 format=3 uid="uid://b1y7hsw47tapc"]

[ext_resource type="Script" path="res://Componentes/Codigos/nodo_jefe_hielo.gd" id="1_o7wbf"]
[ext_resource type="Texture2D" uid="uid://djg18o4ok31ox" path="res://Componentes/Texturas/Personajes/Hielo vivo (ojo).png" id="1_r5o1l"]
[ext_resource type="PackedScene" uid="uid://dwomi73v8p2d8" path="res://Componentes/Prefabricados/Balas/bala_caranbano.tscn" id="2_k0msl"]
[ext_resource type="Texture2D" uid="uid://d4ijk1dtb551x" path="res://Componentes/Texturas/Personajes/Hielo vivo.png" id="2_ubk7g"]

[node name="Nodo jefe hielo" type="Node2D"]
script = ExtResource("1_o7wbf")
balaEsena = ExtResource("2_k0msl")

[node name="Mira" type="Marker2D" parent="."]

[node name="Forma" type="Node2D" parent="."]

[node name="HieloVivo(ojo)" type="Sprite2D" parent="Forma"]
texture = ExtResource("1_r5o1l")

[node name="HieloVivo" type="Sprite2D" parent="Forma"]
texture = ExtResource("2_ubk7g")

[node name="Abrir ojo" type="Timer" parent="."]
one_shot = true

[node name="Disparar y cerrar ojo" type="Timer" parent="."]
one_shot = true

[connection signal="timeout" from="Abrir ojo" to="." method="_on_abrir_ojo_timeout"]
[connection signal="timeout" from="Disparar y cerrar ojo" to="." method="_on_disparar_y_cerrar_ojo_timeout"]
